\select@language {english}
\select@language {english}
\addvspace {10\p@ }
\contentsline {figure}{\numberline {1.1}{\ignorespaces Objects classified by convolutional neural network.\relax }}{3}{figure.caption.7}
\addvspace {10\p@ }
\contentsline {figure}{\numberline {2.1}{\ignorespaces Example input\relax }}{6}{figure.caption.8}
\contentsline {figure}{\numberline {2.2}{\ignorespaces Neuron.\relax }}{7}{figure.caption.9}
\contentsline {figure}{\numberline {2.3}{\ignorespaces Example of multilayer perceptron with one hidden layer.\relax }}{7}{figure.caption.10}
\contentsline {figure}{\numberline {2.4}{\ignorespaces Sigmoid and ReLU activation functions.\relax }}{8}{figure.caption.11}
\contentsline {figure}{\numberline {2.5}{\ignorespaces Calculated values of Hu moments.\relax }}{11}{figure.caption.12}
\addvspace {10\p@ }
\contentsline {figure}{\numberline {3.1}{\ignorespaces Examples of input images of tissues.\relax }}{13}{figure.caption.13}
\contentsline {figure}{\numberline {3.2}{\ignorespaces Three channels from RGB representation of a tissue image.\relax }}{14}{figure.caption.14}
\contentsline {figure}{\numberline {3.3}{\ignorespaces Examples of different structures commonly found in tissue images.\relax }}{15}{figure.caption.15}
\contentsline {figure}{\numberline {3.4}{\ignorespaces Cropping x-scale of histogram.\relax }}{18}{figure.caption.16}
\contentsline {figure}{\numberline {3.5}{\ignorespaces An illustration of visible shadows after equalization.\relax }}{18}{figure.caption.17}
\contentsline {figure}{\numberline {3.6}{\ignorespaces Resulting images after removal of shadows from Fig. \ref {fig:equalization}.\relax }}{21}{figure.caption.18}
\contentsline {figure}{\numberline {3.7}{\ignorespaces Two pixel windows used in algorithm for finding medians.\relax }}{22}{figure.caption.20}
\contentsline {figure}{\numberline {3.8}{\ignorespaces Four pixel windows.\relax }}{26}{figure.caption.21}
\contentsline {figure}{\numberline {3.9}{\ignorespaces Histogram of an image in logarithmic scale\relax }}{28}{figure.caption.22}
\contentsline {figure}{\numberline {3.10}{\ignorespaces Three points, after three phases of searching.\relax }}{31}{figure.caption.23}
\contentsline {figure}{\numberline {3.11}{\ignorespaces Three phases of intensity searching: original image, after finding min/max, after upclimbing, after descent.\relax }}{31}{figure.caption.24}
\contentsline {figure}{\numberline {3.12}{\ignorespaces Cropped and scaled histogram of an image in logarithmic scale.\relax }}{32}{figure.caption.25}
\contentsline {figure}{\numberline {3.13}{\ignorespaces Two example images are shown in two columns. The three rows show: original images, shadows and preprocessed images. We can see that two originally different images are very similar after the preprocessing.\relax }}{33}{figure.caption.26}
\addvspace {10\p@ }
\contentsline {figure}{\numberline {4.1}{\ignorespaces Generated data.\relax }}{36}{figure.caption.27}
\contentsline {figure}{\numberline {4.2}{\ignorespaces Screenshot of the application showing objects labelled by a specialist.\relax }}{37}{figure.caption.28}
\contentsline {figure}{\numberline {4.3}{\ignorespaces Mask after applying threshold.\relax }}{38}{figure.caption.29}
\contentsline {figure}{\numberline {4.4}{\ignorespaces Found objects.\relax }}{39}{figure.caption.30}
\contentsline {figure}{\numberline {4.5}{\ignorespaces Original, segmented and rotated image.\relax }}{42}{figure.caption.31}
\contentsline {figure}{\numberline {4.6}{\ignorespaces Square root function.\relax }}{43}{figure.caption.32}
\contentsline {figure}{\numberline {4.7}{\ignorespaces Examples of resulting data.\relax }}{43}{figure.caption.33}
\addvspace {10\p@ }
\contentsline {figure}{\numberline {5.1}{\ignorespaces Two types of input images.\relax }}{47}{figure.caption.34}
\contentsline {figure}{\numberline {5.2}{\ignorespaces Two types of input images.\relax }}{48}{figure.caption.35}
\contentsline {figure}{\numberline {5.3}{\ignorespaces Example errors.\relax }}{50}{figure.caption.36}
\contentsline {figure}{\numberline {5.4}{\ignorespaces Result after applying first convolutional layer\relax }}{50}{figure.caption.37}
\contentsline {figure}{\numberline {5.5}{\ignorespaces Accuracy on test set for both MLP and CNN.\relax }}{52}{figure.caption.38}
\contentsline {figure}{\numberline {5.6}{\ignorespaces Accuracy on test set with different sizes of training set.\relax }}{53}{figure.caption.39}
\addvspace {10\p@ }
\contentsline {figure}{\numberline {6.1}{\ignorespaces Objects classified by convolutional neural network.\relax }}{55}{figure.caption.40}
