\relax 
\providecommand\hyper@newdestlabel[2]{}
\providecommand\HyperFirstAtBeginDocument{\AtBeginDocument}
\HyperFirstAtBeginDocument{\ifx\hyper@anchor\@undefined
\global\let\oldcontentsline\contentsline
\gdef\contentsline#1#2#3#4{\oldcontentsline{#1}{#2}{#3}}
\global\let\oldnewlabel\newlabel
\gdef\newlabel#1#2{\newlabelxx{#1}#2}
\gdef\newlabelxx#1#2#3#4#5#6{\oldnewlabel{#1}{{#2}{#3}}}
\AtEndDocument{\ifx\hyper@anchor\@undefined
\let\contentsline\oldcontentsline
\let\newlabel\oldnewlabel
\fi}
\fi}
\global\let\hyper@last\relax 
\gdef\HyperFirstAtBeginDocument#1{#1}
\providecommand\HyField@AuxAddToFields[1]{}
\providecommand\HyField@AuxAddToCoFields[2]{}
\catcode `^\active 
\catcode `"\active 
\catcode `'\active 
\catcode `-\active 
\select@language{english}
\@writefile{toc}{\select@language{english}}
\@writefile{lof}{\select@language{english}}
\@writefile{lot}{\select@language{english}}
\select@language{english}
\@writefile{toc}{\select@language{english}}
\@writefile{lof}{\select@language{english}}
\@writefile{lot}{\select@language{english}}
\providecommand*\caption@xref[2]{\@setref\relax\@undefined{#1}}
\newlabel{img:logo}{{\caption@xref {img:logo}{ on input line 101}}{i}{}{figure.caption.1}{}}
\newlabel{img:logo_dark}{{\caption@xref {img:logo_dark}{ on input line 131}}{ii}{}{figure.caption.2}{}}
\newlabel{chap:thank_you}{{}{v}{Acknowledgement}{chapter*.3}{}}
\newlabel{chap:abstract_sk}{{}{vi}{Abstrakt}{chapter*.4}{}}
\newlabel{chap:abstract_en}{{}{vii}{Abstract}{chapter*.5}{}}
\@writefile{toc}{\contentsline {chapter}{\numberline {1}Introduction}{1}{chapter.1}}
\@writefile{lof}{\addvspace {10\p@ }}
\@writefile{lot}{\addvspace {10\p@ }}
\newlabel{chap:intro}{{1}{1}{Introduction}{chapter.1}{}}
\@writefile{toc}{\contentsline {section}{\numberline {1.1}Motivation}{2}{section.1.1}}
\@writefile{toc}{\contentsline {section}{\numberline {1.2}Goal}{2}{section.1.2}}
\@writefile{lof}{\contentsline {figure}{\numberline {1.1}{\ignorespaces Objects classified by convolutional neural network.\relax }}{3}{figure.caption.7}}
\newlabel{fig:segme}{{1.1}{3}{Objects classified by convolutional neural network.\relax }{figure.caption.7}{}}
\@writefile{toc}{\contentsline {section}{\numberline {1.3}Application of results}{3}{section.1.3}}
\@writefile{toc}{\contentsline {section}{\numberline {1.4}State of the art}{3}{section.1.4}}
\@writefile{toc}{\contentsline {section}{\numberline {1.5}Technical specifications}{4}{section.1.5}}
\@writefile{toc}{\contentsline {chapter}{\numberline {2}Metodology}{5}{chapter.2}}
\@writefile{lof}{\addvspace {10\p@ }}
\@writefile{lot}{\addvspace {10\p@ }}
\newlabel{chap:metodology}{{2}{5}{Metodology}{chapter.2}{}}
\@writefile{toc}{\contentsline {section}{\numberline {2.1}Input-output specification}{5}{section.2.1}}
\@writefile{toc}{\contentsline {subsection}{\numberline {2.1.1}Input data specification}{5}{subsection.2.1.1}}
\newlabel{subsec:data_spec}{{2.1.1}{5}{Input data specification}{subsection.2.1.1}{}}
\@writefile{lof}{\contentsline {figure}{\numberline {2.1}{\ignorespaces Example input\relax }}{6}{figure.caption.8}}
\newlabel{fig:input_img}{{2.1}{6}{Example input\relax }{figure.caption.8}{}}
\@writefile{toc}{\contentsline {subsection}{\numberline {2.1.2}Output data specification}{6}{subsection.2.1.2}}
\citation{rojas1996}
\@writefile{lof}{\contentsline {figure}{\numberline {2.2}{\ignorespaces Neuron.\relax }}{7}{figure.caption.9}}
\newlabel{fig:neuron}{{2.2}{7}{Neuron.\relax }{figure.caption.9}{}}
\@writefile{lof}{\contentsline {figure}{\numberline {2.3}{\ignorespaces Example of multilayer perceptron with one hidden layer.\relax }}{7}{figure.caption.10}}
\newlabel{fig:mlp}{{2.3}{7}{Example of multilayer perceptron with one hidden layer.\relax }{figure.caption.10}{}}
\@writefile{toc}{\contentsline {section}{\numberline {2.2}Evaluation methods}{7}{section.2.2}}
\@writefile{toc}{\contentsline {subsection}{\numberline {2.2.1}Multilayer perceptron}{7}{subsection.2.2.1}}
\citation{intro:cnn}
\@writefile{lof}{\contentsline {figure}{\numberline {2.4}{\ignorespaces Sigmoid and ReLU activation functions.\relax }}{8}{figure.caption.11}}
\newlabel{fig:sig_relu}{{2.4}{8}{Sigmoid and ReLU activation functions.\relax }{figure.caption.11}{}}
\@writefile{toc}{\contentsline {subsection}{\numberline {2.2.2}Convolutional neural network}{8}{subsection.2.2.2}}
\citation{humoments}
\@writefile{toc}{\contentsline {section}{\numberline {2.3}Feature selection}{9}{section.2.3}}
\newlabel{sec:feature_sel}{{2.3}{9}{Feature selection}{section.2.3}{}}
\newlabel{fig:sbR}{{2.5a}{11}{Hu moments calculated for some chosen cannonical shapes (circle, double circle, elipse, half-ring, line and ring).\relax }{figure.caption.12}{}}
\newlabel{sub@fig:sbR}{{a}{11}{Hu moments calculated for some chosen cannonical shapes (circle, double circle, elipse, half-ring, line and ring).\relax }{figure.caption.12}{}}
\newlabel{fig:sbG}{{2.5b}{11}{Calculated values of Hu moments for four different structure masks. These moments will be used as input to neural network in later parts of this thesis. We can see that first two structures evaluated as non-target have slightly different values to the values of later two structures evaluated as target.\relax }{figure.caption.12}{}}
\newlabel{sub@fig:sbG}{{b}{11}{Calculated values of Hu moments for four different structure masks. These moments will be used as input to neural network in later parts of this thesis. We can see that first two structures evaluated as non-target have slightly different values to the values of later two structures evaluated as target.\relax }{figure.caption.12}{}}
\@writefile{lof}{\contentsline {figure}{\numberline {2.5}{\ignorespaces Calculated values of Hu moments.\relax }}{11}{figure.caption.12}}
\newlabel{fig:hu}{{2.5}{11}{Calculated values of Hu moments.\relax }{figure.caption.12}{}}
\@writefile{toc}{\contentsline {part}{I\hspace  {1em}Image preprocessing and training set generation}{12}{part.1}}
\newlabel{part:preproc}{{I}{13}{Image preprocessing and training set generation}{part.1}{}}
\@writefile{toc}{\contentsline {chapter}{\numberline {3}Image preprocessing}{13}{chapter.3}}
\@writefile{lof}{\addvspace {10\p@ }}
\@writefile{lot}{\addvspace {10\p@ }}
\newlabel{chap:preproc}{{3}{13}{Image preprocessing}{chapter.3}{}}
\@writefile{toc}{\contentsline {section}{\numberline {3.1}Specification of an immunohistochemistry image}{13}{section.3.1}}
\newlabel{sec:neuron_spec}{{3.1}{13}{Specification of an immunohistochemistry image}{section.3.1}{}}
\newlabel{fig:sub1}{{3.1a}{13}{Brain tissue with marked neurons.\relax }{figure.caption.13}{}}
\newlabel{sub@fig:sub1}{{a}{13}{Brain tissue with marked neurons.\relax }{figure.caption.13}{}}
\newlabel{fig:sub2}{{3.1b}{13}{Tissue with marked cells\relax }{figure.caption.13}{}}
\newlabel{sub@fig:sub2}{{b}{13}{Tissue with marked cells\relax }{figure.caption.13}{}}
\@writefile{lof}{\contentsline {figure}{\numberline {3.1}{\ignorespaces Examples of input images of tissues.\relax }}{13}{figure.caption.13}}
\newlabel{fig:strukturyukazka}{{3.1}{13}{Examples of input images of tissues.\relax }{figure.caption.13}{}}
\newlabel{fig:subR}{{3.2a}{14}{Red channel\relax }{figure.caption.14}{}}
\newlabel{sub@fig:subR}{{a}{14}{Red channel\relax }{figure.caption.14}{}}
\newlabel{fig:subG}{{3.2b}{14}{Green channel\relax }{figure.caption.14}{}}
\newlabel{sub@fig:subG}{{b}{14}{Green channel\relax }{figure.caption.14}{}}
\newlabel{fig:subB}{{3.2c}{14}{Blue channel\relax }{figure.caption.14}{}}
\newlabel{sub@fig:subB}{{c}{14}{Blue channel\relax }{figure.caption.14}{}}
\@writefile{lof}{\contentsline {figure}{\numberline {3.2}{\ignorespaces Three channels from RGB representation of a tissue image.\relax }}{14}{figure.caption.14}}
\newlabel{fig:kanale}{{3.2}{14}{Three channels from RGB representation of a tissue image.\relax }{figure.caption.14}{}}
\@writefile{lof}{\contentsline {figure}{\numberline {3.3}{\ignorespaces Examples of different structures commonly found in tissue images.\relax }}{15}{figure.caption.15}}
\newlabel{fig:difstructures}{{3.3}{15}{Examples of different structures commonly found in tissue images.\relax }{figure.caption.15}{}}
\@writefile{toc}{\contentsline {section}{\numberline {3.2}Target objects}{15}{section.3.2}}
\@writefile{toc}{\contentsline {section}{\numberline {3.3}Image preprocessing}{17}{section.3.3}}
\@writefile{toc}{\contentsline {subsection}{\numberline {3.3.1}Definition of 2D histogram cropping}{17}{subsection.3.3.1}}
\newlabel{def:cropping}{{1}{17}{}{mydef.1}{}}
\@writefile{lof}{\contentsline {figure}{\numberline {3.4}{\ignorespaces Cropping x-scale of histogram.\relax }}{18}{figure.caption.16}}
\newlabel{fig:cropping}{{3.4}{18}{Cropping x-scale of histogram.\relax }{figure.caption.16}{}}
\newlabel{fig:origeq}{{3.5a}{18}{Original image.\relax }{figure.caption.17}{}}
\newlabel{sub@fig:origeq}{{a}{18}{Original image.\relax }{figure.caption.17}{}}
\newlabel{fig:equalized}{{3.5b}{18}{Equalized histogram of image.\relax }{figure.caption.17}{}}
\newlabel{sub@fig:equalized}{{b}{18}{Equalized histogram of image.\relax }{figure.caption.17}{}}
\@writefile{lof}{\contentsline {figure}{\numberline {3.5}{\ignorespaces An illustration of visible shadows after equalization.\relax }}{18}{figure.caption.17}}
\newlabel{fig:equalization}{{3.5}{18}{An illustration of visible shadows after equalization.\relax }{figure.caption.17}{}}
\@writefile{toc}{\contentsline {subsection}{\numberline {3.3.2}Shadows elimination}{18}{subsection.3.3.2}}
\newlabel{lst:shadows}{{3.1}{20}{Shadows elimination with right-max-cropping}{lstlisting.3.1}{}}
\@writefile{lol}{\contentsline {lstlisting}{\numberline {3.1}Shadows elimination with right-max-cropping}{20}{lstlisting.3.1}}
\newlabel{fig:shadowschannelG}{{3.6a}{21}{Processed green channel.\relax }{figure.caption.18}{}}
\newlabel{sub@fig:shadowschannelG}{{a}{21}{Processed green channel.\relax }{figure.caption.18}{}}
\newlabel{fig:eqshachanG}{{3.6b}{21}{Equalized histogram of green channel.\relax }{figure.caption.18}{}}
\newlabel{sub@fig:eqshachanG}{{b}{21}{Equalized histogram of green channel.\relax }{figure.caption.18}{}}
\@writefile{lof}{\contentsline {figure}{\numberline {3.6}{\ignorespaces Resulting images after removal of shadows from Fig. \ref  {fig:equalization}.\relax }}{21}{figure.caption.18}}
\newlabel{fig:shadowequalization}{{3.6}{21}{Resulting images after removal of shadows from Fig. \ref {fig:equalization}.\relax }{figure.caption.18}{}}
\@writefile{toc}{\contentsline {subsubsection}{Efficient algorithm for finding medians}{21}{section*.19}}
\@writefile{lof}{\contentsline {figure}{\numberline {3.7}{\ignorespaces Two pixel windows used in algorithm for finding medians.\relax }}{22}{figure.caption.20}}
\newlabel{fig:adjcentpix}{{3.7}{22}{Two pixel windows used in algorithm for finding medians.\relax }{figure.caption.20}{}}
\newlabel{lst:addrow}{{3.2}{23}{Add row to the difference histogram}{lstlisting.3.2}{}}
\@writefile{lol}{\contentsline {lstlisting}{\numberline {3.2}Add row to the difference histogram}{23}{lstlisting.3.2}}
\newlabel{lst:mvmedian}{{3.3}{24}{Moving median in histogram}{lstlisting.3.3}{}}
\@writefile{lol}{\contentsline {lstlisting}{\numberline {3.3}Moving median in histogram}{24}{lstlisting.3.3}}
\newlabel{lst:mvmedian}{{3.4}{25}{Moving median in histogram}{lstlisting.3.4}{}}
\@writefile{lol}{\contentsline {lstlisting}{\numberline {3.4}Moving median in histogram}{25}{lstlisting.3.4}}
\@writefile{lof}{\contentsline {figure}{\numberline {3.8}{\ignorespaces Four pixel windows.\relax }}{26}{figure.caption.21}}
\newlabel{fig:3pix}{{3.8}{26}{Four pixel windows.\relax }{figure.caption.21}{}}
\@writefile{lof}{\contentsline {figure}{\numberline {3.9}{\ignorespaces Histogram of an image in logarithmic scale\relax }}{28}{figure.caption.22}}
\newlabel{fig:normhistpredGauss}{{3.9}{28}{Histogram of an image in logarithmic scale\relax }{figure.caption.22}{}}
\@writefile{toc}{\contentsline {subsection}{\numberline {3.3.3}Image normalization}{28}{subsection.3.3.3}}
\newlabel{sub:img_normal}{{3.3.3}{28}{Image normalization}{subsection.3.3.3}{}}
\newlabel{lst:shifting}{{3.5}{29}{Shifting through the histogram}{lstlisting.3.5}{}}
\@writefile{lol}{\contentsline {lstlisting}{\numberline {3.5}Shifting through the histogram}{29}{lstlisting.3.5}}
\newlabel{lst:up}{{3.6}{30}{Climbing up through the histogram}{lstlisting.3.6}{}}
\@writefile{lol}{\contentsline {lstlisting}{\numberline {3.6}Climbing up through the histogram}{30}{lstlisting.3.6}}
\newlabel{lst:down}{{3.7}{30}{Climbing down through the histogram}{lstlisting.3.7}{}}
\@writefile{lol}{\contentsline {lstlisting}{\numberline {3.7}Climbing down through the histogram}{30}{lstlisting.3.7}}
\@writefile{lof}{\contentsline {figure}{\numberline {3.10}{\ignorespaces Three points, after three phases of searching.\relax }}{31}{figure.caption.23}}
\newlabel{fig:normhist}{{3.10}{31}{Three points, after three phases of searching.\relax }{figure.caption.23}{}}
\@writefile{lof}{\contentsline {figure}{\numberline {3.11}{\ignorespaces Three phases of intensity searching: original image, after finding min/max, after upclimbing, after descent.\relax }}{31}{figure.caption.24}}
\newlabel{fig:spracovane}{{3.11}{31}{Three phases of intensity searching: original image, after finding min/max, after upclimbing, after descent.\relax }{figure.caption.24}{}}
\@writefile{lof}{\contentsline {figure}{\numberline {3.12}{\ignorespaces Cropped and scaled histogram of an image in logarithmic scale.\relax }}{32}{figure.caption.25}}
\newlabel{fig:normhistpredGauss}{{3.12}{32}{Cropped and scaled histogram of an image in logarithmic scale.\relax }{figure.caption.25}{}}
\@writefile{lof}{\contentsline {figure}{\numberline {3.13}{\ignorespaces Two example images are shown in two columns. The three rows show: original images, shadows and preprocessed images. We can see that two originally different images are very similar after the preprocessing.\relax }}{33}{figure.caption.26}}
\newlabel{fig:prep_img}{{3.13}{33}{Two example images are shown in two columns. The three rows show: original images, shadows and preprocessed images. We can see that two originally different images are very similar after the preprocessing.\relax }{figure.caption.26}{}}
\citation{humoments}
\@writefile{toc}{\contentsline {chapter}{\numberline {4}Training data generation}{35}{chapter.4}}
\@writefile{lof}{\addvspace {10\p@ }}
\@writefile{lot}{\addvspace {10\p@ }}
\newlabel{chap:data_gen}{{4}{35}{Training data generation}{chapter.4}{}}
\@writefile{toc}{\contentsline {section}{\numberline {4.1}Application for data generation}{35}{section.4.1}}
\newlabel{sec:train_app}{{4.1}{35}{Application for data generation}{section.4.1}{}}
\@writefile{lof}{\contentsline {figure}{\numberline {4.1}{\ignorespaces Generated data.\relax }}{36}{figure.caption.27}}
\newlabel{fig:app_train1}{{4.1}{36}{Generated data.\relax }{figure.caption.27}{}}
\@writefile{toc}{\contentsline {section}{\numberline {4.2}Workflow of application}{36}{section.4.2}}
\@writefile{toc}{\contentsline {subsection}{\numberline {4.2.1}Separation of objects}{36}{subsection.4.2.1}}
\newlabel{susub:separation}{{4.2.1}{36}{Separation of objects}{subsection.4.2.1}{}}
\@writefile{lof}{\contentsline {figure}{\numberline {4.2}{\ignorespaces Screenshot of the application showing objects labelled by a specialist.\relax }}{37}{figure.caption.28}}
\newlabel{fig:app_train}{{4.2}{37}{Screenshot of the application showing objects labelled by a specialist.\relax }{figure.caption.28}{}}
\citation{ipol.2011.bcm_nlm}
\citation{Tomasi:1998:BFG:938978.939190}
\@writefile{lof}{\contentsline {figure}{\numberline {4.3}{\ignorespaces Mask after applying threshold.\relax }}{38}{figure.caption.29}}
\newlabel{fig:threshold}{{4.3}{38}{Mask after applying threshold.\relax }{figure.caption.29}{}}
\@writefile{toc}{\contentsline {subsection}{\numberline {4.2.2}Data processing}{38}{subsection.4.2.2}}
\newlabel{sec:data_proc}{{4.2.2}{38}{Data processing}{subsection.4.2.2}{}}
\citation{4310076}
\@writefile{lof}{\contentsline {figure}{\numberline {4.4}{\ignorespaces Found objects.\relax }}{39}{figure.caption.30}}
\newlabel{fig:segm}{{4.4}{39}{Found objects.\relax }{figure.caption.30}{}}
\@writefile{toc}{\contentsline {subsection}{\numberline {4.2.3}Find minimal bounding boxes}{39}{subsection.4.2.3}}
\newlabel{sub:bb}{{4.2.3}{39}{Find minimal bounding boxes}{subsection.4.2.3}{}}
\newlabel{lst:data_prep}{{4.1}{41}{Data preparation}{lstlisting.4.1}{}}
\@writefile{lol}{\contentsline {lstlisting}{\numberline {4.1}Data preparation}{41}{lstlisting.4.1}}
\@writefile{lof}{\contentsline {figure}{\numberline {4.5}{\ignorespaces Original, segmented and rotated image.\relax }}{42}{figure.caption.31}}
\newlabel{fig:segm}{{4.5}{42}{Original, segmented and rotated image.\relax }{figure.caption.31}{}}
\@writefile{toc}{\contentsline {subsection}{\numberline {4.2.4}Unification of data size}{42}{subsection.4.2.4}}
\@writefile{lof}{\contentsline {figure}{\numberline {4.6}{\ignorespaces Square root function.\relax }}{43}{figure.caption.32}}
\newlabel{fig:sqrt}{{4.6}{43}{Square root function.\relax }{figure.caption.32}{}}
\@writefile{lof}{\contentsline {figure}{\numberline {4.7}{\ignorespaces Examples of resulting data.\relax }}{43}{figure.caption.33}}
\newlabel{fig:example_res_data}{{4.7}{43}{Examples of resulting data.\relax }{figure.caption.33}{}}
\@writefile{toc}{\contentsline {subsection}{\numberline {4.2.5}Extracting features for MLP and preparing data for CNN}{44}{subsection.4.2.5}}
\newlabel{sec:feat_ext}{{4.2.5}{44}{Extracting features for MLP and preparing data for CNN}{subsection.4.2.5}{}}
\@writefile{toc}{\contentsline {part}{II\hspace  {1em}Object classification and demo application}{45}{part.2}}
\newlabel{part:objdet}{{II}{46}{Object classification and demo application}{part.2}{}}
\@writefile{toc}{\contentsline {chapter}{\numberline {5}Neural network models}{46}{chapter.5}}
\@writefile{lof}{\addvspace {10\p@ }}
\@writefile{lot}{\addvspace {10\p@ }}
\newlabel{chap:nn}{{5}{46}{Neural network models}{chapter.5}{}}
\@writefile{toc}{\contentsline {section}{\numberline {5.1}Multi layer perceptron}{46}{section.5.1}}
\newlabel{sec:mlp}{{5.1}{46}{Multi layer perceptron}{section.5.1}{}}
\@writefile{toc}{\contentsline {subsection}{\numberline {5.1.1}Input specification}{46}{subsection.5.1.1}}
\citation{DBLP:journals/corr/KingmaB14}
\@writefile{lof}{\contentsline {figure}{\numberline {5.1}{\ignorespaces Two types of input images.\relax }}{47}{figure.caption.34}}
\newlabel{fig:mlp_data}{{5.1}{47}{Two types of input images.\relax }{figure.caption.34}{}}
\@writefile{toc}{\contentsline {subsection}{\numberline {5.1.2}Network specification}{47}{subsection.5.1.2}}
\citation{DBLP:journals/corr/KingmaB14}
\@writefile{lof}{\contentsline {figure}{\numberline {5.2}{\ignorespaces Two types of input images.\relax }}{48}{figure.caption.35}}
\newlabel{fig:cnn_data}{{5.2}{48}{Two types of input images.\relax }{figure.caption.35}{}}
\@writefile{toc}{\contentsline {section}{\numberline {5.2}Convolutional neural network}{48}{section.5.2}}
\newlabel{sec:cnn}{{5.2}{48}{Convolutional neural network}{section.5.2}{}}
\@writefile{toc}{\contentsline {subsection}{\numberline {5.2.1}Input specification}{48}{subsection.5.2.1}}
\@writefile{toc}{\contentsline {subsection}{\numberline {5.2.2}Network specification}{48}{subsection.5.2.2}}
\@writefile{toc}{\contentsline {subsection}{\numberline {5.2.3}Graphical results for the first type of input}{49}{subsection.5.2.3}}
\@writefile{toc}{\contentsline {section}{\numberline {5.3}Compiled results}{49}{section.5.3}}
\@writefile{lof}{\contentsline {figure}{\numberline {5.3}{\ignorespaces Example errors.\relax }}{50}{figure.caption.36}}
\newlabel{fig:err}{{5.3}{50}{Example errors.\relax }{figure.caption.36}{}}
\@writefile{lof}{\contentsline {figure}{\numberline {5.4}{\ignorespaces Result after applying first convolutional layer\relax }}{50}{figure.caption.37}}
\newlabel{fig:conv_lay}{{5.4}{50}{Result after applying first convolutional layer\relax }{figure.caption.37}{}}
\@writefile{lof}{\contentsline {figure}{\numberline {5.5}{\ignorespaces Accuracy on test set for both MLP and CNN.\relax }}{52}{figure.caption.38}}
\newlabel{fig:accuracy}{{5.5}{52}{Accuracy on test set for both MLP and CNN.\relax }{figure.caption.38}{}}
\@writefile{lof}{\contentsline {figure}{\numberline {5.6}{\ignorespaces Accuracy on test set with different sizes of training set.\relax }}{53}{figure.caption.39}}
\newlabel{fig:reduced}{{5.6}{53}{Accuracy on test set with different sizes of training set.\relax }{figure.caption.39}{}}
\@writefile{toc}{\contentsline {chapter}{\numberline {6}Demo application}{54}{chapter.6}}
\@writefile{lof}{\addvspace {10\p@ }}
\@writefile{lot}{\addvspace {10\p@ }}
\@writefile{lof}{\contentsline {figure}{\numberline {6.1}{\ignorespaces Objects classified by convolutional neural network.\relax }}{55}{figure.caption.40}}
\newlabel{fig:segm1}{{6.1}{55}{Objects classified by convolutional neural network.\relax }{figure.caption.40}{}}
\newlabel{chap:conclusions}{{6}{56}{Conclusions}{chapter*.41}{}}
\@writefile{toc}{\contentsline {chapter}{Conclusions}{56}{chapter*.41}}
\@writefile{toc}{\contentsline {chapter}{Future directions}{57}{chapter*.42}}
\citation{*}
\bibstyle{alpha}
\bibdata{references}
\bibcite{ipol.2011.bcm_nlm}{{BCM11}{}{{}}{{}}}
\bibcite{wu2014}{{GW14}{}{{}}{{}}}
\bibcite{humoments}{{Hu62}{}{{}}{{}}}
\bibcite{DBLP:journals/corr/KingmaB14}{{KB14}{}{{}}{{}}}
\bibcite{intro:cnn}{{ON15}{}{{}}{{}}}
\bibcite{4310076}{{Ots79}{}{{}}{{}}}
\bibcite{rojas1996}{{Roj96}{}{{}}{{}}}
\bibcite{Tomasi:1998:BFG:938978.939190}{{TM98}{}{{}}{{}}}
\providecommand\NAT@force@numbers{}\NAT@force@numbers
