This is BibTeX, Version 0.99d (TeX Live 2015/Debian)
Capacity: max_strings=35307, hash_size=35307, hash_prime=30011
The top-level auxiliary file: main.aux
The style file: alpha.bst
Database file #1: references.bib
Warning--I didn't find a database entry for "cnn"
Warning--empty journal in humoments
Warning--empty journal in intro:cnn
You've used 8 entries,
            2543 wiz_defined-function locations,
            616 strings with 5820 characters,
and the built_in function-call counts, 3034 in all, are:
= -- 308
> -- 114
< -- 6
+ -- 37
- -- 35
* -- 201
:= -- 499
add.period$ -- 26
call.type$ -- 8
change.case$ -- 45
chr.to.int$ -- 8
cite$ -- 10
duplicate$ -- 135
empty$ -- 233
format.name$ -- 46
if$ -- 633
int.to.chr$ -- 1
int.to.str$ -- 0
missing$ -- 9
newline$ -- 43
num.names$ -- 24
pop$ -- 40
preamble$ -- 1
purify$ -- 53
quote$ -- 0
skip$ -- 114
stack$ -- 0
substring$ -- 166
swap$ -- 21
text.length$ -- 6
text.prefix$ -- 3
top$ -- 0
type$ -- 60
warning$ -- 2
while$ -- 29
width$ -- 11
write$ -- 107
(There were 3 warnings)
