Accuracy on Test-Set: 52.8% (95 / 180)
Example errors:
Optimization Iteration:      1, Training Accuracy:  53.0%
Time usage: 0:00:00
Accuracy on Test-Set: 49.4% (89 / 180)
Time usage: 0:00:03
Accuracy on Test-Set: 92.2% (166 / 180)
Optimization Iteration:    101, Training Accuracy:  96.9%
Optimization Iteration:    201, Training Accuracy:  98.4%
Optimization Iteration:    301, Training Accuracy: 100.0%
Time usage: 0:00:12
Accuracy on Test-Set: 95.6% (172 / 180)
Optimization Iteration:    401, Training Accuracy: 100.0%
Optimization Iteration:    501, Training Accuracy: 100.0%
Optimization Iteration:    601, Training Accuracy: 100.0%
Optimization Iteration:    701, Training Accuracy: 100.0%
Time usage: 0:00:13
Accuracy on Test-Set: 95.6% (172 / 180)
Optimization Iteration:    801, Training Accuracy: 100.0%
Optimization Iteration:    901, Training Accuracy: 100.0%
Optimization Iteration:   1001, Training Accuracy: 100.0%
Optimization Iteration:   1101, Training Accuracy: 100.0%
Time usage: 0:00:12
Accuracy on Test-Set: 95.0% (171 / 180)
Optimization Iteration:   1201, Training Accuracy: 100.0%
Optimization Iteration:   1301, Training Accuracy: 100.0%
Optimization Iteration:   1401, Training Accuracy: 100.0%
Optimization Iteration:   1501, Training Accuracy: 100.0%
Time usage: 0:00:12
Accuracy on Test-Set: 95.0% (171 / 180)
Optimization Iteration:   1601, Training Accuracy: 100.0%
Optimization Iteration:   1701, Training Accuracy: 100.0%
Optimization Iteration:   1801, Training Accuracy: 100.0%
Optimization Iteration:   1901, Training Accuracy: 100.0%
Time usage: 0:00:12
Accuracy on Test-Set: 95.0% (171 / 180)
Optimization Iteration:   2001, Training Accuracy: 100.0%
Optimization Iteration:   2101, Training Accuracy: 100.0%
Optimization Iteration:   2201, Training Accuracy: 100.0%
Optimization Iteration:   2301, Training Accuracy: 100.0%
Time usage: 0:00:12
Accuracy on Test-Set: 93.9% (169 / 180)
Optimization Iteration:   2401, Training Accuracy: 100.0%
Optimization Iteration:   2501, Training Accuracy: 100.0%
Optimization Iteration:   2601, Training Accuracy: 100.0%
Optimization Iteration:   2701, Training Accuracy: 100.0%
Time usage: 0:00:12
Accuracy on Test-Set: 93.9% (169 / 180)
Optimization Iteration:   2801, Training Accuracy: 100.0%
Optimization Iteration:   2901, Training Accuracy: 100.0%
Optimization Iteration:   3001, Training Accuracy: 100.0%
Optimization Iteration:   3101, Training Accuracy: 100.0%
Time usage: 0:00:12
Accuracy on Test-Set: 94.4% (170 / 180)
Optimization Iteration:   3201, Training Accuracy: 100.0%
Optimization Iteration:   3301, Training Accuracy: 100.0%
Optimization Iteration:   3401, Training Accuracy: 100.0%
Optimization Iteration:   3501, Training Accuracy: 100.0%
Time usage: 0:00:12
Accuracy on Test-Set: 95.0% (171 / 180)
Optimization Iteration:   3601, Training Accuracy: 100.0%
Optimization Iteration:   3701, Training Accuracy: 100.0%
Optimization Iteration:   3801, Training Accuracy: 100.0%
Optimization Iteration:   3901, Training Accuracy: 100.0%
Time usage: 0:00:12
Accuracy on Test-Set: 95.0% (171 / 180)
Optimization Iteration:   4001, Training Accuracy: 100.0%
Optimization Iteration:   4101, Training Accuracy: 100.0%
Optimization Iteration:   4201, Training Accuracy: 100.0%
Optimization Iteration:   4301, Training Accuracy: 100.0%
Time usage: 0:00:12
Accuracy on Test-Set: 95.0% (171 / 180)
Optimization Iteration:   4401, Training Accuracy: 100.0%
Optimization Iteration:   4501, Training Accuracy: 100.0%
Optimization Iteration:   4601, Training Accuracy: 100.0%
Optimization Iteration:   4701, Training Accuracy: 100.0%
Time usage: 0:00:12
Accuracy on Test-Set: 94.4% (170 / 180)
Optimization Iteration:   4801, Training Accuracy: 100.0%
Optimization Iteration:   4901, Training Accuracy: 100.0%
Optimization Iteration:   5001, Training Accuracy: 100.0%
Optimization Iteration:   5101, Training Accuracy: 100.0%
Time usage: 0:00:12
Accuracy on Test-Set: 94.4% (170 / 180)
Optimization Iteration:   5201, Training Accuracy: 100.0%
Optimization Iteration:   5301, Training Accuracy: 100.0%
Optimization Iteration:   5401, Training Accuracy: 100.0%
Optimization Iteration:   5501, Training Accuracy: 100.0%
Time usage: 0:00:12
Accuracy on Test-Set: 95.0% (171 / 180)
Optimization Iteration:   5601, Training Accuracy: 100.0%
Optimization Iteration:   5701, Training Accuracy: 100.0%
Optimization Iteration:   5801, Training Accuracy: 100.0%
Optimization Iteration:   5901, Training Accuracy: 100.0%
Time usage: 0:00:12
Accuracy on Test-Set: 95.0% (171 / 180)
Example errors: